ISSS608 - Take-home Exercise 3 - Vast Challenge 2024
…
id2 <- mc3_edges %>%
  select(target) %>%
  rename(id = target)

mc3_nodes1 <- rbind(id1, id2) %>%
  distinct() %>%
  left_join(mc3_nodes, by = c("id" = "id")) %>%
  mutate(unmatched = "drop")

Verify results

print(mc3_nodes1)

# A tibble: 60,489 × 6
   id                     country     type     revenue ProductServices unmatched
   <chr>                  <chr>       <chr>      <dbl> <chr>           <chr>    
 1 4. SeaCargo Ges.m.b.H. Oceanus     Logisti…  23304. Tuna, sword fi… drop     
 2 9. RiverLine CJSC      Oceanus     Company   50134. Unknown         drop     
 3 Aaron Acosta           Mawalara    Person        0  <NA>            drop     
 4 Aaron Allen            Galduzim    Person        0  <NA>            drop     
 5 Aaron Austin           Kethilim    Person        0  <NA>            drop     
 6 Aaron Baker            Azurionix   Person        0  <NA>            drop     
 7 Aaron Barry            Kondanovia  Person        0  <NA>            drop     
 8 Aaron Bauer            Rio Solovia Person        0  <NA>            drop     
 9 Aaron Bishop           Osterivaro  Person        0  <NA>            drop     
10 Aaron Bolton           n.a.        Person        0  <NA>            drop     
# ℹ 60,479 more rows
…
Identify top 20 nodes by betweenness centrality

# Identify top nodes by betweenness centrality
top_nodes <- mc3_graph %>% 
  as_tibble()

# Identify top 20 nodes by betweenness centrality
top_nodes2 <- top_nodes %>% 
  top_n(20, wt = betweenness_centrality)

List of most active people and businesses

top_nodes2

# A tibble: 21 × 8
   id     country type  revenue ProductServices unmatched betweenness_centrality
   <chr>  <chr>   <chr>   <dbl> <chr>           <chr>                      <dbl>
 1 Corte… Mawala… Comp…  6.99e3 Finish carpent… drop                          22
 2 Evans… Oceanus Fish…  5.50e4 Processing and… drop                          29
 3 Fried… Mawand… Comp…  1.64e4 Grocery produc… drop                          38
 4 Gvard… Nalaki… Comp…  6.85e4 Shipping servi… drop                          33
 5 Hill … Oceanus Comp…  4.75e3 Unknown         drop                          31
 6 Howel… Mawand… Comp…  7.74e6 High-grade met… drop                          54
 7 Johns… Valtal… Comp…  3.35e4 Machinery and … drop                          33
 8 Kaise… Isla S… Comp…  2.32e4 Canned and cur… drop                          26
 9 King … Oceanus Comp…  0      Operation of i… drop                          29
10 Lane … Imazam  Fish…  4.80e3 Fish and seafo… drop                          33
# ℹ 11 more rows
# ℹ 1 more variable: closeness_centrality <dbl>
…
